<?xml version="1.0" encoding="UTF-8" standalone="no"?>
<svg
   viewBox="0 0 71 71"
   version="1.1"
   id="svg2"
   sodipodi:docname="discord.svg"
   inkscape:version="1.3.2 (091e20ef0f, 2023-11-25, custom)"
   xmlns:inkscape="http://www.inkscape.org/namespaces/inkscape"
   xmlns="http://www.w3.org/2000/svg"
   xmlns:svg="http://www.w3.org/2000/svg">
  <defs
     id="defs1" />
  <g
     clip-path="url(#clip0)"
     id="g1"
     transform="translate(0,8)">
    <path
       d="M 60,5 A 59,59 0 0 0 45,1 L 44,4 H 27 A 37,37 0 0 0 25,0 58,58 0 0 0 11,5 60,60 0 0 0 0,46 59,59 0 0 0 18,54 l 4,-5 v -1 l -6,-2 v -1 a 30,30 0 0 0 2,-1 42,42 0 0 0 36,0 l 1,1 v 1 l -6,2 v 1 A 47,47 0 0 0 53,55 59,59 0 0 0 71,45 60,60 0 0 0 60,5 Z M 24,37 c -4,0 -7,-3 -7,-7 0,-4 3,-7 7,-7 3,0 6,3 6,7 0,4 -3,7 -6,7 z m 23,0 c -3,0 -6,-3 -6,-7 0,-4 3,-7 6,-7 4,0 7,3 7,7 0,4 -3,7 -7,7 z"
       id="path1" />
  </g>
  <defs
     id="defs2">
    <clipPath
       id="clip0">
      <path
         d="M 0,0 H 71 V 55 H 0 Z"
         id="path2" />
    </clipPath>
  </defs>
</svg>
