<?xml version="1.0" encoding="UTF-8" standalone="no"?>
<svg
   viewBox="0 0 339 339"
   version="1.1"
   id="svg3"
   sodipodi:docname="gitlab.svg"
   inkscape:version="1.3.2 (091e20ef0f, 2023-11-25, custom)"
   xmlns:inkscape="http://www.inkscape.org/namespaces/inkscape"
   xmlns="http://www.w3.org/2000/svg"
   xmlns:svg="http://www.w3.org/2000/svg">
  <defs
     id="defs3">
    <linearGradient
       id="gitlab-gradient"
       gradientTransform="scale(1.0407051,0.960887)"
       x1="0"
       y1="0"
       x2="325.74069"
       y2="0"
       gradientUnits="userSpaceOnUse">
      <stop
         stop-color="#e24329"
         offset="0"
         id="stop1" />
      <stop
         stop-color="#fc6d26"
         offset="0.5"
         id="stop2" />
      <stop
         stop-color="#fca326"
         offset="1"
         id="stop3" />
    </linearGradient>
    <mask
       id="gl-mask"
       x="0"
       y="0"
       width="339"
       height="313">
      <path
         d="M338 175l-19-55L284 9c-2-5-8-9-14-9s-11 4-13 10l-34 104H115L81 10C79 4 74 0 68 0S56 4 54 10L19 120 1 175c-3 9 0 18 7 23l156 114h2v1h6v-1h2l156-114c7-5 10-14 8-23zM270 20l31 94h-61zm26 110l-13 16-92 119 43-135zM161 308zm-14-43L43 130h61zM68 20l31 94H37zM17 185c-1-1-2-3-1-5l13-41 99 126zm147 126a6 6 0 01-1 0l1 1zm5-32l-26-79-22-70h97zm5 32v1l1-1zm147-126l-111 80 99-126 13 41c1 2 0 4-1 5z"
         fill="white"
         id="path3" />
    </mask>
  </defs>
  <g
     mask="url(#gl-mask)"
     id="g3"
     transform="translate(0,13)">
    <rect
       x="0"
       y="0"
       width="339"
       height="313"
       id="rect3" />
    <rect
       id="gitlab-g"
       x="0"
       y="0"
       width="339"
       height="313"
       fill="url(#gitlab-gradient)"
       style="fill:url(#gitlab-gradient)" />
  </g>
</svg>
